alipowski
bootsy52
anand_subbu
demurgets
bfrantzdale
bill.haneman
astrand
dobey.pwns
chepelov
baptistem
carlos
fherrera
cbiesinger
crichton
callum
A.vanderTogt
aschwin.van.der.woude
federico
dsandras
beland
